<svg xmlns="http://www.w3.org/2000/svg" viewBox="0 0 60.74 105.2">
    <path fill="#f00" d="M60.74 88.25v-71.3L40.85 5.48 31.38.01l.01-.01h-2.03L15.24 8.15.01 16.96H0v71.3h.01l4.97 2.87 24.38 14.08h2.03l20.14-11.63 9.21-5.33zM30.88.87l29.37 16.96v33.91l-10.16-5.87-19.21-11.09V.87zM.51 17.83L29.88.87v33.91L.51 51.74V17.83zm29.37 86.52L.51 87.39V53.48l29.37 16.96v33.91zM10.49 58.08l-9.47-5.47 29.37-16.96L54.3 49.46l5.45 3.15-14.12 8.15-15.25 8.8-19.89-11.48zm20.39 46.27V70.44l29.37-16.96v33.91l-23.06 13.32-6.31 3.64z"/>
</svg>
