<?xml version="1.0" encoding="utf-8"?>
<!-- Generator: Adobe Illustrator 23.1.1, SVG Export Plug-In . SVG Version: 6.00 Build 0)  -->
<svg version="1.1" id="Layer_1" xmlns="http://www.w3.org/2000/svg" xmlns:xlink="http://www.w3.org/1999/xlink" x="0px" y="0px"
	 viewBox="0 0 1920 985" style="enable-background:new 0 0 1920 985;" xml:space="preserve">
<style type="text/css">
	.st0{fill:#FFFFFF;}
</style>
<g>
	<g>
		<path class="st0" d="M339.4,0v8.6l3.6,0.3C486.2,20.8,600.8,133.1,615.5,276l0.9,9.4h8.5V0H339.4z"/>
		<path class="st0" d="M1910.7,276l0.9,9.4h8.5V0h-285.4v8.6l3.6,0.3C1781.4,20.8,1896,133.1,1910.7,276"/>
		<path class="st0" d="M397.1,496V219.1h-8.6l-0.3,3.6C376.3,365.9,264,480.5,121.1,495.2l-9.4,0.9h0v8.5h0l9.4,0.9
			C264,520,376.3,634.6,388.2,777.9l0.3,3.6h8.6V496z"/>
		<path class="st0" d="M8.9,281.8C20.8,138.6,133.1,24,276,9.4l9.4-0.9V0H0v285.4h8.6L8.9,281.8z"/>
		<path class="st0" d="M9.4,709l-0.9-9.4H0V985h285.4v-8.6l-3.6-0.3C138.6,964.2,24,851.9,9.4,709"/>
		<path class="st0" d="M1634.6,504.7l3.6,0.3c143.3,11.9,257.9,124.2,272.5,267.1l0.9,9.4h8.5V496h-285.4V504.7z"/>
		<path class="st0" d="M1295.2,285.4h8.6l0.3-3.6C1315.9,138.6,1428.3,24,1571.2,9.4l9.4-0.9V0h-285.4V285.4z"/>
		<path class="st0" d="M955.8,0H678.8v8.6l3.6,0.3C825.7,20.8,940.3,133.1,954.9,276l0.9,9.4v0h8.5v0l0.9-9.4
			c14.6-142.9,129.2-255.3,272.5-267.1l3.6-0.3V0H955.8z"/>
		<path class="st0" d="M1304.5,709l-0.9-9.4h-8.5V985h285.4v-8.6l-3.6-0.3C1433.8,964.2,1319.2,851.9,1304.5,709"/>
		<path class="st0" d="M965.1,709l-0.9-9.4v0h-8.5v0l-0.9,9.4c-14.6,142.9-129.2,255.3-272.5,267.1l-3.6,0.3v8.6h285.4h276.9v-8.6
			l-3.6-0.3C1094.3,964.2,979.7,851.9,965.1,709"/>
	</g>
</g>
</svg>
