<svg xmlns="http://www.w3.org/2000/svg" viewBox="0 0 28.35 28.35">
    <path d="M5.67 13.41l2.48-.4c1.16 0 2.2.39 3.11 1.17.91.78 1.37 1.92 1.37 3.41 0 1.5-.49 2.76-1.47 3.78-.98 1.03-2.35 1.54-4.12 1.54-1.76 0-3.21-.67-4.35-2.01C1.55 19.56.98 17.83.98 15.71c0-2.12.81-4.23 2.44-6.33 1.63-2.1 3.96-3.84 7-5.22l.47 1.14C6.7 7.63 4.6 9.97 4.6 12.34c0 .71.36 1.07 1.07 1.07zm14.73 0l2.48-.4c1.16 0 2.2.39 3.11 1.17.91.78 1.37 1.92 1.37 3.41 0 1.5-.49 2.76-1.47 3.78-.98 1.03-2.35 1.54-4.12 1.54-1.76 0-3.21-.67-4.35-2.01-1.14-1.34-1.71-3.07-1.71-5.19 0-2.12.81-4.23 2.44-6.33 1.63-2.1 3.96-3.84 7-5.22l.47 1.14c-4.2 2.32-6.29 4.66-6.29 7.03 0 .72.35 1.08 1.07 1.08z"/>
</svg>
